/opt/src/digitaldemocratic/isard-sso/docker/keycloak/extensions/keycloak-avatar-minio-extension/avatar-minio-extension-module/src/main/java/com/github/thomasdarimont/keycloak/avatar/storage/minio/MinioAvatarStorageProviderFactory.java
/opt/src/digitaldemocratic/isard-sso/docker/keycloak/extensions/keycloak-avatar-minio-extension/avatar-minio-extension-module/src/main/java/com/github/thomasdarimont/keycloak/avatar/storage/minio/MinioTemplate.java
/opt/src/digitaldemocratic/isard-sso/docker/keycloak/extensions/keycloak-avatar-minio-extension/avatar-minio-extension-module/src/main/java/com/github/thomasdarimont/keycloak/avatar/storage/minio/MinioConfig.java
/opt/src/digitaldemocratic/isard-sso/docker/keycloak/extensions/keycloak-avatar-minio-extension/avatar-minio-extension-module/src/main/java/com/github/thomasdarimont/keycloak/avatar/storage/AvatarStorageProvider.java
/opt/src/digitaldemocratic/isard-sso/docker/keycloak/extensions/keycloak-avatar-minio-extension/avatar-minio-extension-module/src/main/java/com/github/thomasdarimont/keycloak/avatar/storage/AvatarStorageProviderFactory.java
/opt/src/digitaldemocratic/isard-sso/docker/keycloak/extensions/keycloak-avatar-minio-extension/avatar-minio-extension-module/src/main/java/com/github/thomasdarimont/keycloak/avatar/AvatarResource.java
/opt/src/digitaldemocratic/isard-sso/docker/keycloak/extensions/keycloak-avatar-minio-extension/avatar-minio-extension-module/src/main/java/com/github/thomasdarimont/keycloak/avatar/storage/minio/MinioCallback.java
/opt/src/digitaldemocratic/isard-sso/docker/keycloak/extensions/keycloak-avatar-minio-extension/avatar-minio-extension-module/src/main/java/com/github/thomasdarimont/keycloak/avatar/storage/AvatarStorageProviderSpi.java
/opt/src/digitaldemocratic/isard-sso/docker/keycloak/extensions/keycloak-avatar-minio-extension/avatar-minio-extension-module/src/main/java/com/github/thomasdarimont/keycloak/avatar/AvatarAdminResource.java
/opt/src/digitaldemocratic/isard-sso/docker/keycloak/extensions/keycloak-avatar-minio-extension/avatar-minio-extension-module/src/main/java/com/github/thomasdarimont/keycloak/avatar/AvatarResourceProvider.java
/opt/src/digitaldemocratic/isard-sso/docker/keycloak/extensions/keycloak-avatar-minio-extension/avatar-minio-extension-module/src/main/java/com/github/thomasdarimont/keycloak/avatar/AvatarResourceProviderFactory.java
/opt/src/digitaldemocratic/isard-sso/docker/keycloak/extensions/keycloak-avatar-minio-extension/avatar-minio-extension-module/src/main/java/com/github/thomasdarimont/keycloak/avatar/AbstractAvatarResource.java
/opt/src/digitaldemocratic/isard-sso/docker/keycloak/extensions/keycloak-avatar-minio-extension/avatar-minio-extension-module/src/main/java/com/github/thomasdarimont/keycloak/avatar/storage/minio/MinioAvatarStorageProvider.java
